^C:\USERS\LASSA\SOURCE\REPOS\HOMEWORK 13.4\X64\DEBUG\HOMEWORK 13.4.OBJ
C:\USERS\LASSA\SOURCE\REPOS\HOMEWORK 13.4\X64\DEBUG\HOMEWORK 13.4.EXE
C:\USERS\LASSA\SOURCE\REPOS\HOMEWORK 13.4\X64\DEBUG\HOMEWORK 13.4.ILK
C:\USERS\LASSA\SOURCE\REPOS\HOMEWORK 13.4\X64\DEBUG\HOMEWORK 13.4.PDB
